proy4_comp/simulation/qsim/multiplex.msim.vcd
$comment
	File created using the following command:
		vcd file multiplex.msim.vcd -direction
$end
$date
	Tue Apr 11 02:41:14 2023
$end
$version
	ModelSim Version 2020.1
$end
$timescale
	1ps
$end

$scope module multiplex_vhd_vec_tst $end
$var wire 1 ! entradas [3] $end
$var wire 1 " entradas [2] $end
$var wire 1 # entradas [1] $end
$var wire 1 $ entradas [0] $end
$var wire 1 % salida_mul $end
$var wire 1 & selector [1] $end
$var wire 1 ' selector [0] $end

$scope module i1 $end
$var wire 1 ( gnd $end
$var wire 1 ) vcc $end
$var wire 1 * unknown $end
$var wire 1 + devoe $end
$var wire 1 , devclrn $end
$var wire 1 - devpor $end
$var wire 1 . ww_devoe $end
$var wire 1 / ww_devclrn $end
$var wire 1 0 ww_devpor $end
$var wire 1 1 ww_entradas [3] $end
$var wire 1 2 ww_entradas [2] $end
$var wire 1 3 ww_entradas [1] $end
$var wire 1 4 ww_entradas [0] $end
$var wire 1 5 ww_selector [1] $end
$var wire 1 6 ww_selector [0] $end
$var wire 1 7 ww_salida_mul $end
$var wire 1 8 \salida_mul~output_o\ $end
$var wire 1 9 \entradas[3]~input_o\ $end
$var wire 1 : \entradas[1]~input_o\ $end
$var wire 1 ; \selector[0]~input_o\ $end
$var wire 1 < \selector[1]~input_o\ $end
$var wire 1 = \entradas[2]~input_o\ $end
$var wire 1 > \entradas[0]~input_o\ $end
$var wire 1 ? \salida_mul~0_combout\ $end
$var wire 1 @ \salida_mul~1_combout\ $end
$upscope $end
$upscope $end
$enddefinitions $end
#0
$dumpvars
1%
0(
1)
x*
1+
1,
1-
1.
1/
10
17
18
19
1:
0;
0<
1=
1>
1?
1@
1!
1"
1#
1$
0&
0'
11
12
13
14
05
06
$end
#80000
0!
0"
1'
02
01
16
1;
09
0=
0?
0@
1@
08
07
18
0%
17
1%
#160000
1!
0'
1&
11
06
15
1<
0;
19
0@
08
07
0%
#240000
0!
1'
0#
0$
04
03
01
16
1;
09
0:
0>
1?
#320000
0'
0&
1"
06
05
12
1=
0<
0;
1@
0?
0@
18
17
08
1%
07
0%
#400000
1'
1!
1#
1$
16
14
13
11
19
1:
1>
1;
1@
18
17
1%
#480000
0'
0!
0#
0$
1&
0"
06
15
04
03
02
01
09
0=
0:
0>
1<
0;
0@
08
07
0%
#560000
1'
1#
1$
16
14
13
1:
1>
1;
1?
1@
0@
18
17
08
1%
07
0%
#640000
0'
0#
0&
06
05
03
0:
0<
0;
1@
18
17
1%
#720000
1'
1#
0$
1"
16
04
13
12
1=
1:
0>
1;
0@
0?
1@
08
07
18
0%
17
1%
#800000
0'
0#
1$
1&
1!
06
15
14
03
11
19
0:
1>
1<
0;
1?
0@
1@
08
07
18
0%
17
1%
#880000
1'
1#
0!
0"
16
13
02
01
09
0=
1:
1;
0@
08
07
0%
#960000
0'
0&
06
05
0<
0;
1@
18
17
1%
